%YAML 1.1
%TAG !u! tag:unity3d.com,2011:
--- !u!114 &11400000
MonoBehaviour:
  m_ObjectHideFlags: 0
  m_PrefabParentObject: {fileID: 0}
  m_PrefabInternal: {fileID: 0}
  m_GameObject: {fileID: 0}
  m_Enabled: 1
  m_EditorHideFlags: 0
  m_Script: {fileID: 11500000, guid: f945e777233a59f4aba40aeca29093a6, type: 3}
  m_Name: VendingMachine4FSM
  m_EditorClassIdentifier: 
  _serializedGraph: '{"version":2.3,"type":"NodeCanvas.StateMachines.FSM","name":"FSM","comments":"","translation":{"x":-4763.0,"y":-5033.0},"nodes":[{"_actionList":{"actions":[{"boolVariable":{"_name":"Broken","_targetVariableID":"38746414-e45d-4403-b8ba-27098afee0ad"},"setTo":"False","$type":"NodeCanvas.Tasks.Actions.SetBoolean"}]},"_position":{"x":5098.0,"y":5211.0},"_name":"functional","$type":"NodeCanvas.StateMachines.ActionState","$id":"2"},{"_actionList":{"actions":[{"boolVariable":{"_name":"Broken","_targetVariableID":"38746414-e45d-4403-b8ba-27098afee0ad"},"$type":"NodeCanvas.Tasks.Actions.SetBoolean"},{"targetList":{"_name":"@GlobalBlackboard_BB/Broken_machines","_targetVariableID":"62ff8c82-c847-4b11-b305-69379fa83dcd"},"targetElement":{"_name":"Self","_targetVariableID":"43930a36-162e-4b68-b86f-3101e0435fec"},"$type":"NodeCanvas.Tasks.Actions.AddElementToList`1[[UnityEngine.GameObject,
    UnityEngine, Version=0.0.0.0, Culture=neutral, PublicKeyToken=null]]"},{"boolVariable":{"_name":"@GlobalBlackboard_BB/Machine4_Available","_targetVariableID":"4697ee2c-cc55-4914-8e32-52d6528a69f4"},"setTo":"False","$type":"NodeCanvas.Tasks.Actions.SetBoolean"}]},"_position":{"x":5551.0,"y":5386.0},"_name":"broken","$type":"NodeCanvas.StateMachines.ActionState","$id":"7"}],"connections":[{"_condition":{"valueA":{"_name":"@GlobalBlackboard_BB/Machine4Uses","_targetVariableID":"f48bf948-dd0a-4ac6-a952-e2b3abeb5d72"},"valueB":{"_value":7},"$type":"NodeCanvas.Tasks.Conditions.CheckInt"},"_sourceNode":{"$ref":"2"},"_targetNode":{"$ref":"7"},"$type":"NodeCanvas.StateMachines.FSMConnection"},{"_condition":{"valueA":{"_name":"@GlobalBlackboard_BB/Machine4Uses","_targetVariableID":"f48bf948-dd0a-4ac6-a952-e2b3abeb5d72"},"valueB":{},"$type":"NodeCanvas.Tasks.Conditions.CheckInt"},"_sourceNode":{"$ref":"7"},"_targetNode":{"$ref":"2"},"$type":"NodeCanvas.StateMachines.FSMConnection"}],"primeNode":{"$ref":"2"},"localBlackboard":{"_name":"Local
    Blackboard","_variables":{}}}'
  _objectReferences: []
  _deserializationFailed: 0
